num,project,dimension,concern,imports,file,loc
1,adventurerscodex,rpg,Javascript Programming Support,jquery,/misc/doutorado/workspaces/repos/javascript/rpg/adventurerscodex/test/services/chat_service.spec.js,48
2,adventurerscodex,rpg,Javascript Programming Support,jquery,/misc/doutorado/workspaces/repos/javascript/rpg/adventurerscodex/test/setup.js,5
3,adventurerscodex,rpg,Javascript Programming Support,webpack-merge,/misc/doutorado/workspaces/repos/javascript/rpg/adventurerscodex/webpack.dev.js,70
4,adventurerscodex,rpg,Javascript Programming Support,jquery,/misc/doutorado/workspaces/repos/javascript/rpg/adventurerscodex/src/bin/knockout-jquery-autocomplete.js,53
5,adventurerscodex,rpg,Javascript Programming Support,jquery,/misc/doutorado/workspaces/repos/javascript/rpg/adventurerscodex/src/bin/knockout-validation.js,42
6,adventurerscodex,rpg,Javascript Programming Support,lodash,/misc/doutorado/workspaces/repos/javascript/rpg/adventurerscodex/src/bin/knockout-find.js,76
7,adventurerscodex,rpg,Javascript Programming Support,lodash,/misc/doutorado/workspaces/repos/javascript/rpg/adventurerscodex/src/charactersheet/viewmodels/dm/encounter/index.js,129
8,adventurerscodex,rpg,Javascript Programming Support,jquery,/misc/doutorado/workspaces/repos/javascript/rpg/adventurerscodex/src/charactersheet/viewmodels/common/wizard/steps/wizard_intro_step/index.js,170
9,adventurerscodex,rpg,Javascript Programming Support,jquery,/misc/doutorado/workspaces/repos/javascript/rpg/adventurerscodex/src/charactersheet/init.js,134
10,adventurerscodex,rpg,Javascript Programming Support,lodash,/misc/doutorado/workspaces/repos/javascript/rpg/adventurerscodex/src/charactersheet/models/dm/encounter_sections/encounter_armor.js,153
11,adventurerscodex,rpg,Javascript Programming Support,webpack-merge,/misc/doutorado/workspaces/repos/javascript/rpg/adventurerscodex/webpack.prod.js,98
12,adventurerscodex,rpg,Front-end Development,knockout,/misc/doutorado/workspaces/repos/javascript/rpg/adventurerscodex/test/fixtures.js,426
13,adventurerscodex,rpg,Front-end Development,knockout,/misc/doutorado/workspaces/repos/javascript/rpg/adventurerscodex/src/bin/knockout-markdown.js,60
14,adventurerscodex,rpg,Front-end Development,knockout,/misc/doutorado/workspaces/repos/javascript/rpg/adventurerscodex/src/bin/knockout-jquery-autocomplete.js,53
15,adventurerscodex,rpg,Front-end Development,knockout,/misc/doutorado/workspaces/repos/javascript/rpg/adventurerscodex/src/bin/knockout-bootstrap-collapse.js,45
16,adventurerscodex,rpg,Front-end Development,knockout,/misc/doutorado/workspaces/repos/javascript/rpg/adventurerscodex/src/bin/popover_bind.js,40
17,adventurerscodex,rpg,Front-end Development,knockout,/misc/doutorado/workspaces/repos/javascript/rpg/adventurerscodex/src/bin/knockout-validation.js,42
18,adventurerscodex,rpg,Front-end Development,knockout,/misc/doutorado/workspaces/repos/javascript/rpg/adventurerscodex/src/bin/knockout-custom-loader.js,41
19,adventurerscodex,rpg,Front-end Development,knockout,/misc/doutorado/workspaces/repos/javascript/rpg/adventurerscodex/src/bin/knockout-bottomsup.js,48
20,adventurerscodex,rpg,Front-end Development,knockout,/misc/doutorado/workspaces/repos/javascript/rpg/adventurerscodex/src/bin/knockout-find.js,76
21,adventurerscodex,rpg,Front-end Development,knockout,/misc/doutorado/workspaces/repos/javascript/rpg/adventurerscodex/src/bin/knockout-element-binding.js,17
22,adventurerscodex,rpg,Front-end Development,knockout,/misc/doutorado/workspaces/repos/javascript/rpg/adventurerscodex/src/bin/knockout-file-bind.js,89
23,adventurerscodex,rpg,Front-end Development,knockout,/misc/doutorado/workspaces/repos/javascript/rpg/adventurerscodex/src/bin/knockout-mapping-autoignore.js,30
24,adventurerscodex,rpg,Front-end Development,knockout,/misc/doutorado/workspaces/repos/javascript/rpg/adventurerscodex/src/bin/knockout-bootstrap-modal.js,44
25,adventurerscodex,rpg,Front-end Development,knockout,/misc/doutorado/workspaces/repos/javascript/rpg/adventurerscodex/src/bin/knockout-binding-contenteditable.js,32
26,adventurerscodex,rpg,Front-end Development,knockout,/misc/doutorado/workspaces/repos/javascript/rpg/adventurerscodex/src/bin/knockout-required-extender.js,37
27,adventurerscodex,rpg,Front-end Development,knockout,/misc/doutorado/workspaces/repos/javascript/rpg/adventurerscodex/src/charactersheet/services/common/account/user_service.js,53
28,adventurerscodex,rpg,Front-end Development,knockout,/misc/doutorado/workspaces/repos/javascript/rpg/adventurerscodex/src/charactersheet/services/common/account/notification_service.js,74
29,adventurerscodex,rpg,Front-end Development,knockout,/misc/doutorado/workspaces/repos/javascript/rpg/adventurerscodex/src/charactersheet/services/character/status_service_components/total_weight_component.js,173
30,adventurerscodex,rpg,Front-end Development,knockout,/misc/doutorado/workspaces/repos/javascript/rpg/adventurerscodex/src/charactersheet/services/character/proficiency_service.js,74
31,adventurerscodex,rpg,Front-end Development,knockout,/misc/doutorado/workspaces/repos/javascript/rpg/adventurerscodex/src/charactersheet/services/character/armor_class_service.js,166
32,adventurerscodex,rpg,Front-end Development,knockout,/misc/doutorado/workspaces/repos/javascript/rpg/adventurerscodex/src/charactersheet/viewmodels/dm/encounter_add_edit_modal/index.js,95
33,adventurerscodex,rpg,Front-end Development,knockout,/misc/doutorado/workspaces/repos/javascript/rpg/adventurerscodex/src/charactersheet/viewmodels/dm/overview/index.js,122
34,adventurerscodex,rpg,Front-end Development,knockout,/misc/doutorado/workspaces/repos/javascript/rpg/adventurerscodex/src/charactersheet/viewmodels/dm/encounter_detail/index.js,48
35,adventurerscodex,rpg,Front-end Development,knockout,/misc/doutorado/workspaces/repos/javascript/rpg/adventurerscodex/src/charactersheet/viewmodels/dm/encounter/index.js,129
36,adventurerscodex,rpg,Front-end Development,knockout,/misc/doutorado/workspaces/repos/javascript/rpg/adventurerscodex/src/charactersheet/viewmodels/dm/encounter_sections/npc_section/index.js,278
37,adventurerscodex,rpg,Front-end Development,knockout,/misc/doutorado/workspaces/repos/javascript/rpg/adventurerscodex/src/charactersheet/viewmodels/dm/encounter_sections/point_of_interest_section/index.js,248
38,adventurerscodex,rpg,Front-end Development,knockout,/misc/doutorado/workspaces/repos/javascript/rpg/adventurerscodex/src/charactersheet/viewmodels/dm/encounter_sections/monster_section/index.js,314
39,adventurerscodex,rpg,Front-end Development,knockout,/misc/doutorado/workspaces/repos/javascript/rpg/adventurerscodex/src/charactersheet/viewmodels/dm/encounter_sections/player_text_section/index.js,241
40,adventurerscodex,rpg,Front-end Development,knockout,/misc/doutorado/workspaces/repos/javascript/rpg/adventurerscodex/src/charactersheet/viewmodels/dm/encounter_sections/notes_section/index.js,66
41,adventurerscodex,rpg,Front-end Development,knockout,/misc/doutorado/workspaces/repos/javascript/rpg/adventurerscodex/src/charactersheet/viewmodels/dm/encounter_sections/environment_section/index.js,235
42,adventurerscodex,rpg,Front-end Development,knockout,/misc/doutorado/workspaces/repos/javascript/rpg/adventurerscodex/src/charactersheet/viewmodels/dm/encounter_sections/trap_section/index.js,258
43,adventurerscodex,rpg,Front-end Development,knockout,/misc/doutorado/workspaces/repos/javascript/rpg/adventurerscodex/src/charactersheet/viewmodels/dm/encounter_sections/maps_and_images_section/index.js,269
44,adventurerscodex,rpg,Front-end Development,knockout,/misc/doutorado/workspaces/repos/javascript/rpg/adventurerscodex/src/charactersheet/viewmodels/dm/encounter_sections/treasure_section/index.js,570
45,adventurerscodex,rpg,Front-end Development,knockout,/misc/doutorado/workspaces/repos/javascript/rpg/adventurerscodex/src/charactersheet/viewmodels/dm/player_push_modal/index.js,123
46,adventurerscodex,rpg,Front-end Development,knockout,/misc/doutorado/workspaces/repos/javascript/rpg/adventurerscodex/src/charactersheet/viewmodels/dm/encounter_cell/index.js,59
47,adventurerscodex,rpg,Front-end Development,knockout,/misc/doutorado/workspaces/repos/javascript/rpg/adventurerscodex/src/charactersheet/viewmodels/dm/dmscreen/index.js,12
48,adventurerscodex,rpg,Front-end Development,knockout,/misc/doutorado/workspaces/repos/javascript/rpg/adventurerscodex/src/charactersheet/viewmodels/dm/status_line/index.js,109
49,adventurerscodex,rpg,Front-end Development,knockout,/misc/doutorado/workspaces/repos/javascript/rpg/adventurerscodex/src/charactersheet/viewmodels/dm/party/index.js,79
50,adventurerscodex,rpg,Front-end Development,knockout,/misc/doutorado/workspaces/repos/javascript/rpg/adventurerscodex/src/charactersheet/viewmodels/dm/root/index.js,189
51,adventurerscodex,rpg,Front-end Development,knockout,/misc/doutorado/workspaces/repos/javascript/rpg/adventurerscodex/src/charactersheet/viewmodels/dm/campaign_maps_and_images/index.js,246
52,adventurerscodex,rpg,Front-end Development,knockout,/misc/doutorado/workspaces/repos/javascript/rpg/adventurerscodex/src/charactersheet/viewmodels/dm/encounter_section_visibility/index.js,18
53,adventurerscodex,rpg,Front-end Development,knockout,/misc/doutorado/workspaces/repos/javascript/rpg/adventurerscodex/src/charactersheet/viewmodels/common/master_detail/index.js,192
54,adventurerscodex,rpg,Front-end Development,knockout,/misc/doutorado/workspaces/repos/javascript/rpg/adventurerscodex/src/charactersheet/viewmodels/common/party_manager/index.js,282
55,adventurerscodex,rpg,Front-end Development,knockout,/misc/doutorado/workspaces/repos/javascript/rpg/adventurerscodex/src/charactersheet/viewmodels/common/wizard/index.js,378
56,adventurerscodex,rpg,Front-end Development,knockout,/misc/doutorado/workspaces/repos/javascript/rpg/adventurerscodex/src/charactersheet/viewmodels/common/wizard/steps/wizard_ability_scores_step/index.js,207
57,adventurerscodex,rpg,Front-end Development,knockout,/misc/doutorado/workspaces/repos/javascript/rpg/adventurerscodex/src/charactersheet/viewmodels/common/wizard/steps/wizard_intro_step/index.js,170
58,adventurerscodex,rpg,Front-end Development,knockout,/misc/doutorado/workspaces/repos/javascript/rpg/adventurerscodex/src/charactersheet/viewmodels/common/wizard/steps/wizard_file_import_error_step/index.js,22
59,adventurerscodex,rpg,Front-end Development,knockout,/misc/doutorado/workspaces/repos/javascript/rpg/adventurerscodex/src/charactersheet/viewmodels/common/wizard/steps/wizard_profile_step/index.js,162
60,adventurerscodex,rpg,Front-end Development,knockout,/misc/doutorado/workspaces/repos/javascript/rpg/adventurerscodex/src/charactersheet/viewmodels/common/wizard/steps/wizard_player_type_step/index.js,63
61,adventurerscodex,rpg,Front-end Development,knockout,/misc/doutorado/workspaces/repos/javascript/rpg/adventurerscodex/src/charactersheet/viewmodels/common/wizard/steps/wizard_campaign_step/index.js,62
62,adventurerscodex,rpg,Front-end Development,knockout,/misc/doutorado/workspaces/repos/javascript/rpg/adventurerscodex/src/charactersheet/viewmodels/common/characters/index.js,113
63,adventurerscodex,rpg,Front-end Development,knockout,/misc/doutorado/workspaces/repos/javascript/rpg/adventurerscodex/src/charactersheet/viewmodels/common/party_status/index.js,39
64,adventurerscodex,rpg,Front-end Development,knockout,/misc/doutorado/workspaces/repos/javascript/rpg/adventurerscodex/src/charactersheet/viewmodels/common/player_name/index.js,78
65,adventurerscodex,rpg,Front-end Development,knockout,/misc/doutorado/workspaces/repos/javascript/rpg/adventurerscodex/src/charactersheet/viewmodels/common/share/index.js,63
66,adventurerscodex,rpg,Front-end Development,knockout,/misc/doutorado/workspaces/repos/javascript/rpg/adventurerscodex/src/charactersheet/viewmodels/common/user_notification/index.js,78
67,adventurerscodex,rpg,Front-end Development,knockout,/misc/doutorado/workspaces/repos/javascript/rpg/adventurerscodex/src/charactersheet/viewmodels/common/player_image/index.js,201
68,adventurerscodex,rpg,Front-end Development,knockout,/misc/doutorado/workspaces/repos/javascript/rpg/adventurerscodex/src/charactersheet/viewmodels/common/character_picker/index.js,81
69,adventurerscodex,rpg,Front-end Development,knockout,/misc/doutorado/workspaces/repos/javascript/rpg/adventurerscodex/src/charactersheet/viewmodels/common/root/index.js,167
70,adventurerscodex,rpg,Front-end Development,knockout,/misc/doutorado/workspaces/repos/javascript/rpg/adventurerscodex/src/charactersheet/viewmodels/common/login/index.js,69
71,adventurerscodex,rpg,Front-end Development,knockout,/misc/doutorado/workspaces/repos/javascript/rpg/adventurerscodex/src/charactersheet/viewmodels/common/notes/index.js,96
72,adventurerscodex,rpg,Front-end Development,knockout,/misc/doutorado/workspaces/repos/javascript/rpg/adventurerscodex/src/charactersheet/viewmodels/common/chat/chat_log_system_item/index.js,37
73,adventurerscodex,rpg,Front-end Development,knockout,/misc/doutorado/workspaces/repos/javascript/rpg/adventurerscodex/src/charactersheet/viewmodels/common/chat/chat_log_image_item/index.js,117
74,adventurerscodex,rpg,Front-end Development,knockout,/misc/doutorado/workspaces/repos/javascript/rpg/adventurerscodex/src/charactersheet/viewmodels/common/chat/chat_detail/index.js,247
75,adventurerscodex,rpg,Front-end Development,knockout,/misc/doutorado/workspaces/repos/javascript/rpg/adventurerscodex/src/charactersheet/viewmodels/common/chat/chat_cell/index.js,71
76,adventurerscodex,rpg,Front-end Development,knockout,/misc/doutorado/workspaces/repos/javascript/rpg/adventurerscodex/src/charactersheet/viewmodels/common/chat/index.js,283
77,adventurerscodex,rpg,Front-end Development,knockout,/misc/doutorado/workspaces/repos/javascript/rpg/adventurerscodex/src/charactersheet/viewmodels/common/chat/chat_log_chat_item/index.js,110
78,adventurerscodex,rpg,Front-end Development,knockout,/misc/doutorado/workspaces/repos/javascript/rpg/adventurerscodex/src/charactersheet/viewmodels/common/chat/chat_modal/index.js,102
79,adventurerscodex,rpg,Front-end Development,knockout,/misc/doutorado/workspaces/repos/javascript/rpg/adventurerscodex/src/charactersheet/viewmodels/common/chat/chat_log_read_aloud_item/index.js,101
80,adventurerscodex,rpg,Front-end Development,knockout,/misc/doutorado/workspaces/repos/javascript/rpg/adventurerscodex/src/charactersheet/viewmodels/common/chat/chat_log_poi_item/index.js,147
81,adventurerscodex,rpg,Front-end Development,knockout,/misc/doutorado/workspaces/repos/javascript/rpg/adventurerscodex/src/charactersheet/viewmodels/character/stats/index.js,475
82,adventurerscodex,rpg,Front-end Development,knockout,/misc/doutorado/workspaces/repos/javascript/rpg/adventurerscodex/src/charactersheet/viewmodels/character/magic_items/index.js,245
83,adventurerscodex,rpg,Front-end Development,knockout,/misc/doutorado/workspaces/repos/javascript/rpg/adventurerscodex/src/charactersheet/viewmodels/character/spell_slots/index.js,270
84,adventurerscodex,rpg,Front-end Development,knockout,/misc/doutorado/workspaces/repos/javascript/rpg/adventurerscodex/src/charactersheet/viewmodels/character/ability_scores/index.js,80
85,adventurerscodex,rpg,Front-end Development,knockout,/misc/doutorado/workspaces/repos/javascript/rpg/adventurerscodex/src/charactersheet/viewmodels/character/ability_scores/delegate.js,68
86,adventurerscodex,rpg,Front-end Development,knockout,/misc/doutorado/workspaces/repos/javascript/rpg/adventurerscodex/src/charactersheet/viewmodels/character/weapons/index.js,263
87,adventurerscodex,rpg,Front-end Development,knockout,/misc/doutorado/workspaces/repos/javascript/rpg/adventurerscodex/src/charactersheet/viewmodels/character/exhibit/index.js,66
88,adventurerscodex,rpg,Front-end Development,knockout,/misc/doutorado/workspaces/repos/javascript/rpg/adventurerscodex/src/charactersheet/viewmodels/character/other_stats/index.js,221
89,adventurerscodex,rpg,Front-end Development,knockout,/misc/doutorado/workspaces/repos/javascript/rpg/adventurerscodex/src/charactersheet/viewmodels/character/proficiencies/index.js,187
90,adventurerscodex,rpg,Front-end Development,knockout,/misc/doutorado/workspaces/repos/javascript/rpg/adventurerscodex/src/charactersheet/viewmodels/character/actions_toolbar/index.js,52
91,adventurerscodex,rpg,Front-end Development,knockout,/misc/doutorado/workspaces/repos/javascript/rpg/adventurerscodex/src/charactersheet/viewmodels/character/skills/index.js,214
92,adventurerscodex,rpg,Front-end Development,knockout,/misc/doutorado/workspaces/repos/javascript/rpg/adventurerscodex/src/charactersheet/viewmodels/character/status_line/index.js,67
93,adventurerscodex,rpg,Front-end Development,knockout,/misc/doutorado/workspaces/repos/javascript/rpg/adventurerscodex/src/charactersheet/viewmodels/character/items/index.js,224
94,adventurerscodex,rpg,Front-end Development,knockout,/misc/doutorado/workspaces/repos/javascript/rpg/adventurerscodex/src/charactersheet/viewmodels/character/feats/index.js,216
95,adventurerscodex,rpg,Front-end Development,knockout,/misc/doutorado/workspaces/repos/javascript/rpg/adventurerscodex/src/charactersheet/viewmodels/character/saving_throws/index.js,148
96,adventurerscodex,rpg,Front-end Development,knockout,/misc/doutorado/workspaces/repos/javascript/rpg/adventurerscodex/src/charactersheet/viewmodels/character/spells/index.js,297
97,adventurerscodex,rpg,Front-end Development,knockout,/misc/doutorado/workspaces/repos/javascript/rpg/adventurerscodex/src/charactersheet/viewmodels/character/root/index.js,236
98,adventurerscodex,rpg,Front-end Development,knockout,/misc/doutorado/workspaces/repos/javascript/rpg/adventurerscodex/src/charactersheet/viewmodels/character/tracker/index.js,251
99,adventurerscodex,rpg,Front-end Development,knockout,/misc/doutorado/workspaces/repos/javascript/rpg/adventurerscodex/src/charactersheet/viewmodels/character/background/index.js,93
100,adventurerscodex,rpg,Front-end Development,knockout,/misc/doutorado/workspaces/repos/javascript/rpg/adventurerscodex/src/charactersheet/viewmodels/character/features/index.js,224
101,adventurerscodex,rpg,Front-end Development,knockout,/misc/doutorado/workspaces/repos/javascript/rpg/adventurerscodex/src/charactersheet/viewmodels/character/spell_stats/index.js,80
102,adventurerscodex,rpg,Front-end Development,knockout,/misc/doutorado/workspaces/repos/javascript/rpg/adventurerscodex/src/charactersheet/viewmodels/character/profile/index.js,226
103,adventurerscodex,rpg,Front-end Development,knockout,/misc/doutorado/workspaces/repos/javascript/rpg/adventurerscodex/src/charactersheet/viewmodels/character/wealth/index.js,48
104,adventurerscodex,rpg,Front-end Development,knockout,/misc/doutorado/workspaces/repos/javascript/rpg/adventurerscodex/src/charactersheet/viewmodels/character/armor/index.js,258
105,adventurerscodex,rpg,Front-end Development,knockout,/misc/doutorado/workspaces/repos/javascript/rpg/adventurerscodex/src/charactersheet/viewmodels/character/traits/index.js,229
106,adventurerscodex,rpg,Front-end Development,knockout|bootstrap,/misc/doutorado/workspaces/repos/javascript/rpg/adventurerscodex/src/charactersheet/init.js,134
107,adventurerscodex,rpg,Front-end Development,knockout,/misc/doutorado/workspaces/repos/javascript/rpg/adventurerscodex/src/charactersheet/models/dm/exhibit.js,45
108,adventurerscodex,rpg,Front-end Development,knockout,/misc/doutorado/workspaces/repos/javascript/rpg/adventurerscodex/src/charactersheet/models/dm/encounter_sections/trap.js,128
109,adventurerscodex,rpg,Front-end Development,knockout,/misc/doutorado/workspaces/repos/javascript/rpg/adventurerscodex/src/charactersheet/models/dm/encounter_sections/encounter_item.js,110
110,adventurerscodex,rpg,Front-end Development,knockout,/misc/doutorado/workspaces/repos/javascript/rpg/adventurerscodex/src/charactersheet/models/dm/encounter_sections/player_text.js,59
111,adventurerscodex,rpg,Front-end Development,knockout,/misc/doutorado/workspaces/repos/javascript/rpg/adventurerscodex/src/charactersheet/models/dm/encounter_sections/treasure.js,17
112,adventurerscodex,rpg,Front-end Development,knockout,/misc/doutorado/workspaces/repos/javascript/rpg/adventurerscodex/src/charactersheet/models/dm/encounter_sections/encounter_coins.js,127
113,adventurerscodex,rpg,Front-end Development,knockout,/misc/doutorado/workspaces/repos/javascript/rpg/adventurerscodex/src/charactersheet/models/dm/encounter_sections/monster.js,173
114,adventurerscodex,rpg,Front-end Development,knockout,/misc/doutorado/workspaces/repos/javascript/rpg/adventurerscodex/src/charactersheet/models/dm/encounter_sections/environment.js,55
115,adventurerscodex,rpg,Front-end Development,knockout,/misc/doutorado/workspaces/repos/javascript/rpg/adventurerscodex/src/charactersheet/models/dm/encounter_sections/npc.js,63
116,adventurerscodex,rpg,Front-end Development,knockout,/misc/doutorado/workspaces/repos/javascript/rpg/adventurerscodex/src/charactersheet/models/dm/encounter_sections/encounter_magic_item.js,129
117,adventurerscodex,rpg,Front-end Development,knockout,/misc/doutorado/workspaces/repos/javascript/rpg/adventurerscodex/src/charactersheet/models/dm/encounter_sections/encounter_weapon.js,162
118,adventurerscodex,rpg,Front-end Development,knockout,/misc/doutorado/workspaces/repos/javascript/rpg/adventurerscodex/src/charactersheet/models/dm/encounter_sections/note.js,25
119,adventurerscodex,rpg,Front-end Development,knockout,/misc/doutorado/workspaces/repos/javascript/rpg/adventurerscodex/src/charactersheet/models/dm/encounter_sections/point_of_interest.js,60
120,adventurerscodex,rpg,Front-end Development,knockout,/misc/doutorado/workspaces/repos/javascript/rpg/adventurerscodex/src/charactersheet/models/dm/encounter_sections/monster_ability_score.js,66
121,adventurerscodex,rpg,Front-end Development,knockout,/misc/doutorado/workspaces/repos/javascript/rpg/adventurerscodex/src/charactersheet/models/dm/encounter_sections/encounter_armor.js,153
122,adventurerscodex,rpg,Front-end Development,knockout,/misc/doutorado/workspaces/repos/javascript/rpg/adventurerscodex/src/charactersheet/models/dm/image.js,53
123,adventurerscodex,rpg,Front-end Development,knockout,/misc/doutorado/workspaces/repos/javascript/rpg/adventurerscodex/src/charactersheet/models/dm/encounter.js,83
124,adventurerscodex,rpg,Front-end Development,knockout,/misc/doutorado/workspaces/repos/javascript/rpg/adventurerscodex/src/charactersheet/models/dm/campaign.js,38
125,adventurerscodex,rpg,Front-end Development,knockout,/misc/doutorado/workspaces/repos/javascript/rpg/adventurerscodex/src/charactersheet/models/dm/encounter_section.js,21
126,adventurerscodex,rpg,Front-end Development,knockout,/misc/doutorado/workspaces/repos/javascript/rpg/adventurerscodex/src/charactersheet/models/common/share_key.js,19
127,adventurerscodex,rpg,Front-end Development,knockout,/misc/doutorado/workspaces/repos/javascript/rpg/adventurerscodex/src/charactersheet/models/common/pCard.js,304
128,adventurerscodex,rpg,Front-end Development,knockout,/misc/doutorado/workspaces/repos/javascript/rpg/adventurerscodex/src/charactersheet/models/common/message.js,189
129,adventurerscodex,rpg,Front-end Development,knockout,/misc/doutorado/workspaces/repos/javascript/rpg/adventurerscodex/src/charactersheet/models/common/spell.js,140
130,adventurerscodex,rpg,Front-end Development,knockout,/misc/doutorado/workspaces/repos/javascript/rpg/adventurerscodex/src/charactersheet/models/common/magic_item.js,112
131,adventurerscodex,rpg,Front-end Development,knockout,/misc/doutorado/workspaces/repos/javascript/rpg/adventurerscodex/src/charactersheet/models/common/wealth.js,114
132,adventurerscodex,rpg,Front-end Development,knockout,/misc/doutorado/workspaces/repos/javascript/rpg/adventurerscodex/src/charactersheet/models/common/authentication_token.js,97
133,adventurerscodex,rpg,Front-end Development,knockout,/misc/doutorado/workspaces/repos/javascript/rpg/adventurerscodex/src/charactersheet/models/common/player_image.js,18
134,adventurerscodex,rpg,Front-end Development,knockout,/misc/doutorado/workspaces/repos/javascript/rpg/adventurerscodex/src/charactersheet/models/common/chat_room.js,88
135,adventurerscodex,rpg,Front-end Development,knockout,/misc/doutorado/workspaces/repos/javascript/rpg/adventurerscodex/src/charactersheet/models/common/presence.js,131
136,adventurerscodex,rpg,Front-end Development,knockout,/misc/doutorado/workspaces/repos/javascript/rpg/adventurerscodex/src/charactersheet/models/common/image.js,59
137,adventurerscodex,rpg,Front-end Development,knockout,/misc/doutorado/workspaces/repos/javascript/rpg/adventurerscodex/src/charactersheet/models/common/weapon.js,289
138,adventurerscodex,rpg,Front-end Development,knockout,/misc/doutorado/workspaces/repos/javascript/rpg/adventurerscodex/src/charactersheet/models/common/character.js,265
139,adventurerscodex,rpg,Front-end Development,knockout,/misc/doutorado/workspaces/repos/javascript/rpg/adventurerscodex/src/charactersheet/models/common/core.js,48
140,adventurerscodex,rpg,Front-end Development,knockout,/misc/doutorado/workspaces/repos/javascript/rpg/adventurerscodex/src/charactersheet/models/common/note.js,77
141,adventurerscodex,rpg,Front-end Development,knockout,/misc/doutorado/workspaces/repos/javascript/rpg/adventurerscodex/src/charactersheet/models/common/status.js,68
142,adventurerscodex,rpg,Front-end Development,knockout,/misc/doutorado/workspaces/repos/javascript/rpg/adventurerscodex/src/charactersheet/models/common/armor.js,136
143,adventurerscodex,rpg,Front-end Development,knockout,/misc/doutorado/workspaces/repos/javascript/rpg/adventurerscodex/src/charactersheet/models/common/player_card.js,171
144,adventurerscodex,rpg,Front-end Development,knockout,/misc/doutorado/workspaces/repos/javascript/rpg/adventurerscodex/src/charactersheet/models/common/item.js,104
145,adventurerscodex,rpg,Front-end Development,knockout,/misc/doutorado/workspaces/repos/javascript/rpg/adventurerscodex/src/charactersheet/models/character/death_save.js,17
146,adventurerscodex,rpg,Front-end Development,knockout,/misc/doutorado/workspaces/repos/javascript/rpg/adventurerscodex/src/charactersheet/models/character/ability_score.js,80
147,adventurerscodex,rpg,Front-end Development,knockout,/misc/doutorado/workspaces/repos/javascript/rpg/adventurerscodex/src/charactersheet/models/character/spell_slot.js,57
148,adventurerscodex,rpg,Front-end Development,knockout,/misc/doutorado/workspaces/repos/javascript/rpg/adventurerscodex/src/charactersheet/models/character/spell_stats.js,69
149,adventurerscodex,rpg,Front-end Development,knockout,/misc/doutorado/workspaces/repos/javascript/rpg/adventurerscodex/src/charactersheet/models/character/skill.js,129
150,adventurerscodex,rpg,Front-end Development,knockout,/misc/doutorado/workspaces/repos/javascript/rpg/adventurerscodex/src/charactersheet/models/character/saving_throw.js,89
151,adventurerscodex,rpg,Front-end Development,knockout,/misc/doutorado/workspaces/repos/javascript/rpg/adventurerscodex/src/charactersheet/models/character/trait.js,37
152,adventurerscodex,rpg,Front-end Development,knockout,/misc/doutorado/workspaces/repos/javascript/rpg/adventurerscodex/src/charactersheet/models/character/proficiency.js,28
153,adventurerscodex,rpg,Front-end Development,knockout,/misc/doutorado/workspaces/repos/javascript/rpg/adventurerscodex/src/charactersheet/models/character/hit_dice.js,18
154,adventurerscodex,rpg,Front-end Development,knockout,/misc/doutorado/workspaces/repos/javascript/rpg/adventurerscodex/src/charactersheet/models/character/tracked.js,38
155,adventurerscodex,rpg,Front-end Development,knockout,/misc/doutorado/workspaces/repos/javascript/rpg/adventurerscodex/src/charactersheet/models/character/feat.js,28
156,adventurerscodex,rpg,Front-end Development,knockout,/misc/doutorado/workspaces/repos/javascript/rpg/adventurerscodex/src/charactersheet/models/character/health.js,83
157,adventurerscodex,rpg,Front-end Development,knockout,/misc/doutorado/workspaces/repos/javascript/rpg/adventurerscodex/src/charactersheet/models/character/profile.js,112
158,adventurerscodex,rpg,Front-end Development,knockout,/misc/doutorado/workspaces/repos/javascript/rpg/adventurerscodex/src/charactersheet/models/character/background.js,28
159,adventurerscodex,rpg,Front-end Development,knockout,/misc/doutorado/workspaces/repos/javascript/rpg/adventurerscodex/src/charactersheet/models/character/feature.js,44
160,adventurerscodex,rpg,Front-end Development,knockout,/misc/doutorado/workspaces/repos/javascript/rpg/adventurerscodex/src/charactersheet/models/character/other_stats.js,64
161,adventurerscodex,rpg,Front-end Development,knockout,/misc/doutorado/workspaces/repos/javascript/rpg/adventurerscodex/src/charactersheet/utilities/convenience.js,174
162,adventurerscodex,rpg,Front-end Development,knockout,/misc/doutorado/workspaces/repos/javascript/rpg/adventurerscodex/src/charactersheet/components/full-screen-image/index.js,31
163,adventurerscodex,rpg,Front-end Development,knockout,/misc/doutorado/workspaces/repos/javascript/rpg/adventurerscodex/src/charactersheet/components/plus-minus.js,63
164,adventurerscodex,rpg,Front-end Development,knockout,/misc/doutorado/workspaces/repos/javascript/rpg/adventurerscodex/src/charactersheet/components/markdown-edit-preview.js,141
165,adventurerscodex,rpg,Front-end Development,knockout,/misc/doutorado/workspaces/repos/javascript/rpg/adventurerscodex/src/charactersheet/components/preview-edit.js,70
166,adventurerscodex,rpg,Front-end Development,knockout,/misc/doutorado/workspaces/repos/javascript/rpg/adventurerscodex/src/charactersheet/components/image-picker.js,59
167,adventurerscodex,rpg,Front-end Development,knockout,/misc/doutorado/workspaces/repos/javascript/rpg/adventurerscodex/src/charactersheet/components/named-fields-well/index.js,66
168,adventurerscodex,rpg,Front-end Development,knockout,/misc/doutorado/workspaces/repos/javascript/rpg/adventurerscodex/src/charactersheet/components/nested-list.js,132
169,adventurerscodex,rpg,Front-end Development,knockout,/misc/doutorado/workspaces/repos/javascript/rpg/adventurerscodex/src/charactersheet/components/proficiency-marker.js,56
170,adventurerscodex,rpg,Front-end Development,knockout|spin,/misc/doutorado/workspaces/repos/javascript/rpg/adventurerscodex/src/app.js,63
171,adventurerscodex,rpg,Bundling and Deployment,webpack,/misc/doutorado/workspaces/repos/javascript/rpg/adventurerscodex/webpack.dev.js,70
172,adventurerscodex,rpg,Bundling and Deployment,webpack|extract-text-webpack-plugin,/misc/doutorado/workspaces/repos/javascript/rpg/adventurerscodex/webpack.common.js,117
173,adventurerscodex,rpg,Bundling and Deployment,webpack,/misc/doutorado/workspaces/repos/javascript/rpg/adventurerscodex/webpack.prod.js,98
174,adventurerscodex,rpg,Javascript Parsing/Compiling,babel-loader,/misc/doutorado/workspaces/repos/javascript/rpg/adventurerscodex/webpack.common.js,117
175,adventurerscodex,rpg,Javascript Parsing/Compiling,babel-polyfill,/misc/doutorado/workspaces/repos/javascript/rpg/adventurerscodex/src/charactersheet/services/character/sync/character_card_fields.js,229
176,adventurerscodex,rpg,Javascript Parsing/Compiling,babel-polyfill,/misc/doutorado/workspaces/repos/javascript/rpg/adventurerscodex/src/charactersheet/init.js,134
177,adventurerscodex,rpg,Javascript Parsing/Compiling,babel-polyfill,/misc/doutorado/workspaces/repos/javascript/rpg/adventurerscodex/src/charactersheet/utilities/core_manager.js,103
178,adventurerscodex,rpg,File and Directory Processing,copy-webpack-plugin|file-loader|url-loader,/misc/doutorado/workspaces/repos/javascript/rpg/adventurerscodex/webpack.common.js,117
179,adventurerscodex,rpg,File and Directory Processing,save-as,/misc/doutorado/workspaces/repos/javascript/rpg/adventurerscodex/src/charactersheet/models/common/character.js,265
180,adventurerscodex,rpg,HTML Creation/Parsing,html-webpack-plugin|html-loader,/misc/doutorado/workspaces/repos/javascript/rpg/adventurerscodex/webpack.common.js,117
181,adventurerscodex,rpg,CSS Creation/Parsing/Transformation,css-loader|style-loader,/misc/doutorado/workspaces/repos/javascript/rpg/adventurerscodex/webpack.common.js,117
182,adventurerscodex,rpg,Image Processing,svg-url-loader|image-webpack-loader,/misc/doutorado/workspaces/repos/javascript/rpg/adventurerscodex/webpack.common.js,117
183,adventurerscodex,rpg,Validation,jquery-validation,/misc/doutorado/workspaces/repos/javascript/rpg/adventurerscodex/src/bin/knockout-validation.js,42
184,adventurerscodex,rpg,Data Format Processing,knockout-mapping,/misc/doutorado/workspaces/repos/javascript/rpg/adventurerscodex/src/bin/knockout-mapping-autoignore.js,30
185,adventurerscodex,rpg,Data Format Processing,knockout-mapping,/misc/doutorado/workspaces/repos/javascript/rpg/adventurerscodex/src/charactersheet/models/dm/encounter_sections/note.js,25
186,adventurerscodex,rpg,Data Format Processing,knockout-mapping,/misc/doutorado/workspaces/repos/javascript/rpg/adventurerscodex/src/charactersheet/models/dm/image.js,53
187,adventurerscodex,rpg,Data Format Processing,knockout-mapping,/misc/doutorado/workspaces/repos/javascript/rpg/adventurerscodex/src/charactersheet/models/common/pCard.js,304
188,adventurerscodex,rpg,Data Format Processing,knockout-mapping,/misc/doutorado/workspaces/repos/javascript/rpg/adventurerscodex/src/charactersheet/models/common/spell.js,140
189,adventurerscodex,rpg,Data Format Processing,knockout-mapping,/misc/doutorado/workspaces/repos/javascript/rpg/adventurerscodex/src/charactersheet/models/common/authentication_token.js,97
190,adventurerscodex,rpg,Data Format Processing,knockout-mapping,/misc/doutorado/workspaces/repos/javascript/rpg/adventurerscodex/src/charactersheet/models/common/player_image.js,18
191,adventurerscodex,rpg,Data Format Processing,knockout-mapping,/misc/doutorado/workspaces/repos/javascript/rpg/adventurerscodex/src/charactersheet/models/common/chat_room.js,88
192,adventurerscodex,rpg,Data Format Processing,knockout-mapping,/misc/doutorado/workspaces/repos/javascript/rpg/adventurerscodex/src/charactersheet/models/common/presence.js,131
193,adventurerscodex,rpg,Data Format Processing,knockout-mapping,/misc/doutorado/workspaces/repos/javascript/rpg/adventurerscodex/src/charactersheet/models/common/image.js,59
194,adventurerscodex,rpg,Data Format Processing,knockout-mapping,/misc/doutorado/workspaces/repos/javascript/rpg/adventurerscodex/src/charactersheet/models/common/weapon.js,289
195,adventurerscodex,rpg,Data Format Processing,knockout-mapping,/misc/doutorado/workspaces/repos/javascript/rpg/adventurerscodex/src/charactersheet/models/common/character.js,265
196,adventurerscodex,rpg,Data Format Processing,knockout-mapping,/misc/doutorado/workspaces/repos/javascript/rpg/adventurerscodex/src/charactersheet/models/common/note.js,77
197,adventurerscodex,rpg,Data Format Processing,knockout-mapping,/misc/doutorado/workspaces/repos/javascript/rpg/adventurerscodex/src/charactersheet/models/common/status.js,68
198,adventurerscodex,rpg,Data Format Processing,knockout-mapping,/misc/doutorado/workspaces/repos/javascript/rpg/adventurerscodex/src/charactersheet/models/common/player_card.js,171
199,adventurerscodex,rpg,Data Format Processing,knockout-mapping,/misc/doutorado/workspaces/repos/javascript/rpg/adventurerscodex/src/charactersheet/models/character/death_save.js,17
200,adventurerscodex,rpg,Data Format Processing,knockout-mapping,/misc/doutorado/workspaces/repos/javascript/rpg/adventurerscodex/src/charactersheet/models/character/ability_score.js,80
201,adventurerscodex,rpg,Data Format Processing,knockout-mapping,/misc/doutorado/workspaces/repos/javascript/rpg/adventurerscodex/src/charactersheet/models/character/saving_throw.js,89
202,adventurerscodex,rpg,Data Format Processing,knockout-mapping,/misc/doutorado/workspaces/repos/javascript/rpg/adventurerscodex/src/charactersheet/models/character/hit_dice.js,18
203,adventurerscodex,rpg,Data Format Processing,knockout-mapping,/misc/doutorado/workspaces/repos/javascript/rpg/adventurerscodex/src/charactersheet/models/character/tracked.js,38
204,adventurerscodex,rpg,Data Format Processing,knockout-mapping,/misc/doutorado/workspaces/repos/javascript/rpg/adventurerscodex/src/charactersheet/models/character/health.js,83
205,adventurerscodex,rpg,Data Format Processing,knockout-mapping,/misc/doutorado/workspaces/repos/javascript/rpg/adventurerscodex/src/charactersheet/models/character/background.js,28
206,adventurerscodex,rpg,Data Format Processing,knockout-mapping,/misc/doutorado/workspaces/repos/javascript/rpg/adventurerscodex/src/charactersheet/models/character/other_stats.js,64
207,adventurerscodex,rpg,Mathematical Processing,random-js,/misc/doutorado/workspaces/repos/javascript/rpg/adventurerscodex/src/charactersheet/services/common/rng_service.js,111
208,adventurerscodex,rpg,URL Processing,urijs,/misc/doutorado/workspaces/repos/javascript/rpg/adventurerscodex/src/charactersheet/services/common/account/authentication_service.js,118
209,adventurerscodex,rpg,URL Processing,urijs,/misc/doutorado/workspaces/repos/javascript/rpg/adventurerscodex/src/charactersheet/init.js,134
210,adventurerscodex,rpg,URL Processing,urijs,/misc/doutorado/workspaces/repos/javascript/rpg/adventurerscodex/src/charactersheet/utilities/core_manager.js,103
211,adventurerscodex,rpg,URL Processing,urijs,/misc/doutorado/workspaces/repos/javascript/rpg/adventurerscodex/src/charactersheet/utilities/tab_fragment_manager.js,65
212,adventurerscodex,rpg,Hashing,node-uuid,/misc/doutorado/workspaces/repos/javascript/rpg/adventurerscodex/src/charactersheet/services/common/account/messaging/chat_service.js,390
213,adventurerscodex,rpg,Hashing,node-uuid,/misc/doutorado/workspaces/repos/javascript/rpg/adventurerscodex/src/charactersheet/services/common/sync/card_service.js,162
214,adventurerscodex,rpg,Hashing,node-uuid,/misc/doutorado/workspaces/repos/javascript/rpg/adventurerscodex/src/charactersheet/migrations/130_2_feats_features_proficiencies_daily_features.js,81
215,adventurerscodex,rpg,Hashing,node-uuid,/misc/doutorado/workspaces/repos/javascript/rpg/adventurerscodex/src/charactersheet/viewmodels/common/chat/index.js,283
216,adventurerscodex,rpg,Hashing,node-uuid,/misc/doutorado/workspaces/repos/javascript/rpg/adventurerscodex/src/charactersheet/viewmodels/character/features/index.js,224
217,adventurerscodex,rpg,Hashing,node-uuid,/misc/doutorado/workspaces/repos/javascript/rpg/adventurerscodex/src/charactersheet/viewmodels/character/traits/index.js,229
218,adventurerscodex,rpg,Hashing,uuid,/misc/doutorado/workspaces/repos/javascript/rpg/adventurerscodex/src/charactersheet/models/dm/encounter_sections/trap.js,128
219,adventurerscodex,rpg,Hashing,uuid,/misc/doutorado/workspaces/repos/javascript/rpg/adventurerscodex/src/charactersheet/models/dm/encounter_sections/encounter_item.js,110
220,adventurerscodex,rpg,Hashing,uuid,/misc/doutorado/workspaces/repos/javascript/rpg/adventurerscodex/src/charactersheet/models/dm/encounter_sections/player_text.js,59
221,adventurerscodex,rpg,Hashing,uuid,/misc/doutorado/workspaces/repos/javascript/rpg/adventurerscodex/src/charactersheet/models/dm/encounter_sections/treasure.js,17
222,adventurerscodex,rpg,Hashing,uuid,/misc/doutorado/workspaces/repos/javascript/rpg/adventurerscodex/src/charactersheet/models/dm/encounter_sections/encounter_coins.js,127
223,adventurerscodex,rpg,Hashing,uuid,/misc/doutorado/workspaces/repos/javascript/rpg/adventurerscodex/src/charactersheet/models/dm/encounter_sections/monster.js,173
224,adventurerscodex,rpg,Hashing,uuid,/misc/doutorado/workspaces/repos/javascript/rpg/adventurerscodex/src/charactersheet/models/dm/encounter_sections/npc.js,63
225,adventurerscodex,rpg,Hashing,uuid,/misc/doutorado/workspaces/repos/javascript/rpg/adventurerscodex/src/charactersheet/models/dm/encounter_sections/encounter_magic_item.js,129
226,adventurerscodex,rpg,Hashing,uuid,/misc/doutorado/workspaces/repos/javascript/rpg/adventurerscodex/src/charactersheet/models/dm/encounter_sections/encounter_weapon.js,162
227,adventurerscodex,rpg,Hashing,uuid,/misc/doutorado/workspaces/repos/javascript/rpg/adventurerscodex/src/charactersheet/models/dm/encounter_sections/note.js,25
228,adventurerscodex,rpg,Hashing,uuid,/misc/doutorado/workspaces/repos/javascript/rpg/adventurerscodex/src/charactersheet/models/dm/encounter_sections/point_of_interest.js,60
229,adventurerscodex,rpg,Hashing,uuid,/misc/doutorado/workspaces/repos/javascript/rpg/adventurerscodex/src/charactersheet/models/dm/encounter_sections/encounter_armor.js,153
230,adventurerscodex,rpg,Hashing,node-uuid,/misc/doutorado/workspaces/repos/javascript/rpg/adventurerscodex/src/charactersheet/models/dm/encounter.js,83
231,adventurerscodex,rpg,Hashing,node-uuid,/misc/doutorado/workspaces/repos/javascript/rpg/adventurerscodex/src/charactersheet/models/common/character.js,265
232,adventurerscodex,rpg,Compression,lz-string,/misc/doutorado/workspaces/repos/javascript/rpg/adventurerscodex/src/charactersheet/services/common/sync/card_service.js,162
233,adventurerscodex,rpg,Compression,lz-string,/misc/doutorado/workspaces/repos/javascript/rpg/adventurerscodex/src/charactersheet/models/common/message.js,189
234,adventurerscodex,rpg,Compression,lz-string,/misc/doutorado/workspaces/repos/javascript/rpg/adventurerscodex/src/charactersheet/utilities/json_payload.js,68
235,adventurerscodex,rpg,Compression,compression-webpack-plugin,/misc/doutorado/workspaces/repos/javascript/rpg/adventurerscodex/webpack.prod.js,98
236,adventurerscodex,rpg,Clipboard,clipboard,/misc/doutorado/workspaces/repos/javascript/rpg/adventurerscodex/src/charactersheet/viewmodels/common/share/index.js,63
237,adventurerscodex,rpg,Clipboard,clipboard,/misc/doutorado/workspaces/repos/javascript/rpg/adventurerscodex/src/charactersheet/init.js,134
238,adventurerscodex,rpg,Notification,toastr,/misc/doutorado/workspaces/repos/javascript/rpg/adventurerscodex/src/charactersheet/viewmodels/common/user_notification/index.js,78
239,adventurerscodex,rpg,Encryption,blueimp-md5,/misc/doutorado/workspaces/repos/javascript/rpg/adventurerscodex/src/charactersheet/viewmodels/common/player_image/index.js,201
240,adventurerscodex,rpg,Mobile Programming,hypnos,/misc/doutorado/workspaces/repos/javascript/rpg/adventurerscodex/src/charactersheet/init.js,134
241,adventurerscodex,rpg,Mobile Programming,hypnos,/misc/doutorado/workspaces/repos/javascript/rpg/adventurerscodex/src/charactersheet/models/dm/encounter_sections/note.js,25
242,adventurerscodex,rpg,Mobile Programming,hypnos,/misc/doutorado/workspaces/repos/javascript/rpg/adventurerscodex/src/charactersheet/models/common/share_key.js,19
243,adventurerscodex,rpg,Mobile Programming,hypnos,/misc/doutorado/workspaces/repos/javascript/rpg/adventurerscodex/src/charactersheet/models/common/spell.js,140
244,adventurerscodex,rpg,Mobile Programming,hypnos,/misc/doutorado/workspaces/repos/javascript/rpg/adventurerscodex/src/charactersheet/models/common/magic_item.js,112
245,adventurerscodex,rpg,Mobile Programming,hypnos,/misc/doutorado/workspaces/repos/javascript/rpg/adventurerscodex/src/charactersheet/models/common/wealth.js,114
246,adventurerscodex,rpg,Mobile Programming,hypnos,/misc/doutorado/workspaces/repos/javascript/rpg/adventurerscodex/src/charactersheet/models/common/weapon.js,289
247,adventurerscodex,rpg,Mobile Programming,hypnos,/misc/doutorado/workspaces/repos/javascript/rpg/adventurerscodex/src/charactersheet/models/common/core.js,48
248,adventurerscodex,rpg,Mobile Programming,hypnos,/misc/doutorado/workspaces/repos/javascript/rpg/adventurerscodex/src/charactersheet/models/common/note.js,77
249,adventurerscodex,rpg,Mobile Programming,hypnos,/misc/doutorado/workspaces/repos/javascript/rpg/adventurerscodex/src/charactersheet/models/common/armor.js,136
250,adventurerscodex,rpg,Mobile Programming,hypnos,/misc/doutorado/workspaces/repos/javascript/rpg/adventurerscodex/src/charactersheet/models/common/item.js,104
251,adventurerscodex,rpg,Mobile Programming,hypnos,/misc/doutorado/workspaces/repos/javascript/rpg/adventurerscodex/src/charactersheet/models/character/death_save.js,17
252,adventurerscodex,rpg,Mobile Programming,hypnos,/misc/doutorado/workspaces/repos/javascript/rpg/adventurerscodex/src/charactersheet/models/character/ability_score.js,80
253,adventurerscodex,rpg,Mobile Programming,hypnos,/misc/doutorado/workspaces/repos/javascript/rpg/adventurerscodex/src/charactersheet/models/character/spell_stats.js,69
254,adventurerscodex,rpg,Mobile Programming,hypnos,/misc/doutorado/workspaces/repos/javascript/rpg/adventurerscodex/src/charactersheet/models/character/skill.js,129
255,adventurerscodex,rpg,Mobile Programming,hypnos,/misc/doutorado/workspaces/repos/javascript/rpg/adventurerscodex/src/charactersheet/models/character/saving_throw.js,89
256,adventurerscodex,rpg,Mobile Programming,hypnos,/misc/doutorado/workspaces/repos/javascript/rpg/adventurerscodex/src/charactersheet/models/character/trait.js,37
257,adventurerscodex,rpg,Mobile Programming,hypnos,/misc/doutorado/workspaces/repos/javascript/rpg/adventurerscodex/src/charactersheet/models/character/proficiency.js,28
258,adventurerscodex,rpg,Mobile Programming,hypnos,/misc/doutorado/workspaces/repos/javascript/rpg/adventurerscodex/src/charactersheet/models/character/hit_dice.js,18
259,adventurerscodex,rpg,Mobile Programming,hypnos,/misc/doutorado/workspaces/repos/javascript/rpg/adventurerscodex/src/charactersheet/models/character/feat.js,28
260,adventurerscodex,rpg,Mobile Programming,hypnos,/misc/doutorado/workspaces/repos/javascript/rpg/adventurerscodex/src/charactersheet/models/character/health.js,83
261,adventurerscodex,rpg,Mobile Programming,hypnos,/misc/doutorado/workspaces/repos/javascript/rpg/adventurerscodex/src/charactersheet/models/character/profile.js,112
262,adventurerscodex,rpg,Mobile Programming,hypnos,/misc/doutorado/workspaces/repos/javascript/rpg/adventurerscodex/src/charactersheet/models/character/background.js,28
263,adventurerscodex,rpg,Mobile Programming,hypnos,/misc/doutorado/workspaces/repos/javascript/rpg/adventurerscodex/src/charactersheet/models/character/feature.js,44
264,adventurerscodex,rpg,Mobile Programming,hypnos,/misc/doutorado/workspaces/repos/javascript/rpg/adventurerscodex/src/charactersheet/models/character/other_stats.js,64
265,adventurerscodex,rpg,Messaging,signals,/misc/doutorado/workspaces/repos/javascript/rpg/adventurerscodex/src/charactersheet/utilities/notifications.js,382
266,adventurerscodex,rpg,Node Programming Support,clean-webpack-plugin,/misc/doutorado/workspaces/repos/javascript/rpg/adventurerscodex/webpack.prod.js,98
