num,project,dimension,concern,imports,file,loc
1,delaford,rpg,Test,@vue/test-utils,/misc/doutorado/workspaces/repos/javascript/rpg/delaford/tests/unit/example.spec.js,13
2,delaford,rpg,Socket-based Communication,ws,/misc/doutorado/workspaces/repos/javascript/rpg/delaford/server/socket.js,74
3,delaford,rpg,Socket-based Communication,ws,/misc/doutorado/workspaces/repos/javascript/rpg/delaford/server/core/player.js,383
4,delaford,rpg,Web Gaming,pathfinding,/misc/doutorado/workspaces/repos/javascript/rpg/delaford/server/core/player.js,383
5,delaford,rpg,Web Gaming,pathfinding,/misc/doutorado/workspaces/repos/javascript/rpg/delaford/server/core/map.js,210
6,delaford,rpg,Web Gaming,pathfinding,/misc/doutorado/workspaces/repos/javascript/rpg/delaford/src/core/map.js,429
7,delaford,rpg,Emojis,node-emoji,/misc/doutorado/workspaces/repos/javascript/rpg/delaford/server/core/player.js,383
8,delaford,rpg,Emojis,node-emoji,/misc/doutorado/workspaces/repos/javascript/rpg/delaford/server/core/npc.js,122
9,delaford,rpg,Emojis,node-emoji,/misc/doutorado/workspaces/repos/javascript/rpg/delaford/server/Delaford.js,142
10,delaford,rpg,Javascript Programming Support,axios,/misc/doutorado/workspaces/repos/javascript/rpg/delaford/server/core/player.js,383
11,delaford,rpg,Javascript Programming Support,axios,/misc/doutorado/workspaces/repos/javascript/rpg/delaford/server/player/authentication.js,117
12,delaford,rpg,Javascript Programming Support,lodash,/misc/doutorado/workspaces/repos/javascript/rpg/delaford/server/player/action.js,159
13,delaford,rpg,Datetime Processing,date-fns,/misc/doutorado/workspaces/repos/javascript/rpg/delaford/server/core/item.js,125
14,delaford,rpg,Front-end Development,vue-tippy|vue,/misc/doutorado/workspaces/repos/javascript/rpg/delaford/src/main.js,56
15,delaford,rpg,Front-end Development,vuex|vue|vuex-persistedstate,/misc/doutorado/workspaces/repos/javascript/rpg/delaford/src/store.js,57
16,delaford,rpg,Front-end Development,vue,/misc/doutorado/workspaces/repos/javascript/rpg/delaford/src/core/utilities/bus.js,8
17,delaford,rpg,Front-end Development,vue,/misc/doutorado/workspaces/repos/javascript/rpg/delaford/jest.config.js,23
18,delaford,rpg,Node Programming Support,module-alias,/misc/doutorado/workspaces/repos/javascript/rpg/delaford/server.js,58
19,delaford,rpg,Express Programming Support,express,/misc/doutorado/workspaces/repos/javascript/rpg/delaford/server.js,58
20,delaford,rpg,Security,ssl-express-www,/misc/doutorado/workspaces/repos/javascript/rpg/delaford/server.js,58
21,delaford,rpg,Compression,compression,/misc/doutorado/workspaces/repos/javascript/rpg/delaford/server.js,58
